1996.01.07,00:00,0.74760,0.74850,0.74200,0.74400,412
1996.01.14,00:00,0.74400,0.74600,0.73100,0.73750,444
1996.01.21,00:00,0.73400,0.74070,0.73100,0.73830,501
1996.01.28,00:00,0.73640,0.75900,0.73640,0.75800,422
1996.02.04,00:00,0.75870,0.76120,0.75100,0.75520,550
1996.02.11,00:00,0.75450,0.75880,0.75210,0.75570,417
1996.02.18,00:00,0.75670,0.75860,0.74940,0.75750,435
1996.02.25,00:00,0.75660,0.76800,0.75530,0.76160,423
1996.03.03,00:00,0.76340,0.76950,0.75680,0.76890,349
1996.03.10,00:00,0.76850,0.77680,0.76600,0.77330,301
1996.03.17,00:00,0.77280,0.77900,0.77200,0.77690,286
1996.03.24,00:00,0.77550,0.78450,0.77200,0.78300,405
1996.03.31,00:00,0.78450,0.78800,0.77890,0.78450,387
1996.04.07,00:00,0.78310,0.79270,0.78150,0.79170,382
1996.04.14,00:00,0.79200,0.79370,0.78090,0.78600,375
1996.04.21,00:00,0.78430,0.79200,0.78300,0.79050,346
1996.04.28,00:00,0.78910,0.79820,0.78450,0.79740,362
1996.05.05,00:00,0.79660,0.80500,0.79500,0.80200,398
1996.05.12,00:00,0.80120,0.80410,0.79700,0.80100,443
1996.05.19,00:00,0.79910,0.80100,0.78930,0.79120,467
1996.05.26,00:00,0.79040,0.80020,0.78920,0.79890,315
1996.06.02,00:00,0.80000,0.80360,0.78480,0.79260,417
1996.06.09,00:00,0.79060,0.79550,0.78650,0.79320,378
1996.06.16,00:00,0.79200,0.79330,0.78660,0.78950,348
1996.06.23,00:00,0.78810,0.79350,0.78530,0.78710,332
1996.06.30,00:00,0.78720,0.79750,0.78050,0.79560,419
1996.07.07,00:00,0.79440,0.80030,0.79150,0.79760,386
1996.07.14,00:00,0.79650,0.79800,0.78300,0.79180,531
1996.07.21,00:00,0.79100,0.79320,0.78450,0.78680,488
1996.07.28,00:00,0.78710,0.78950,0.76850,0.77390,615
1996.08.04,00:00,0.77260,0.78170,0.77150,0.77980,433
1996.08.11,00:00,0.77860,0.78460,0.77630,0.78320,327
1996.08.18,00:00,0.78290,0.79380,0.78290,0.79170,456
1996.08.25,00:00,0.79080,0.79450,0.78640,0.79020,355
1996.09.01,00:00,0.79050,0.80090,0.78830,0.80000,340
1996.09.08,00:00,0.79900,0.80240,0.79000,0.79120,367
1996.09.15,00:00,0.79170,0.79480,0.78600,0.79210,432
1996.09.22,00:00,0.79100,0.79420,0.78510,0.79020,334
1996.09.29,00:00,0.79070,0.79700,0.78770,0.78900,405
1996.10.06,00:00,0.78850,0.79290,0.78550,0.79060,444
1996.10.13,00:00,0.79060,0.79700,0.78840,0.79570,330
1996.10.20,00:00,0.79510,0.80010,0.78850,0.79050,407
1996.10.27,00:00,0.79050,0.79480,0.78740,0.78900,380
1996.11.03,00:00,0.78850,0.79350,0.78130,0.78790,556
1996.11.10,00:00,0.78810,0.79250,0.78600,0.79060,365
1996.11.17,00:00,0.79030,0.81520,0.78990,0.81460,470
1996.11.24,00:00,0.81280,0.81730,0.80680,0.81660,500
1996.12.01,00:00,0.81700,0.82150,0.78500,0.79800,983
1996.12.08,00:00,0.79860,0.80530,0.78810,0.79200,537
1996.12.15,00:00,0.79310,0.79740,0.79000,0.79560,354
1996.12.22,00:00,0.79550,0.80050,0.79370,0.79550,295
1996.12.29,00:00,0.79700,0.79900,0.78830,0.79060,369
1997.01.05,00:00,0.79070,0.79230,0.77320,0.78200,659
1997.01.12,00:00,0.78150,0.78310,0.77350,0.78100,512
1997.01.19,00:00,0.78190,0.78260,0.76980,0.77300,467
1997.01.26,00:00,0.77250,0.77410,0.75900,0.76230,558
1997.02.02,00:00,0.76260,0.77010,0.75850,0.76200,645
1997.02.09,00:00,0.76100,0.77350,0.75460,0.76500,660
1997.02.16,00:00,0.76460,0.77980,0.76300,0.77800,465
1997.02.23,00:00,0.77610,0.78250,0.77320,0.77910,498
1997.03.02,00:00,0.78050,0.79180,0.77950,0.78660,484
1997.03.09,00:00,0.78680,0.80050,0.78480,0.79850,463
1997.03.16,00:00,0.79760,0.79950,0.78240,0.78700,569
1997.03.23,00:00,0.78620,0.79110,0.77980,0.78400,491
1997.03.30,00:00,0.78330,0.79030,0.77480,0.77600,429
1997.04.06,00:00,0.77570,0.78990,0.77300,0.78480,662
1997.04.13,00:00,0.78520,0.78700,0.76860,0.77320,581
1997.04.20,00:00,0.77410,0.78050,0.77300,0.77620,447
1997.04.27,00:00,0.77620,0.78670,0.77270,0.78300,498
1997.05.04,00:00,0.78160,0.78390,0.77350,0.77860,505
1997.05.11,00:00,0.77650,0.78410,0.77220,0.77660,642
1997.05.18,00:00,0.77540,0.78960,0.76320,0.76660,749
1997.05.25,00:00,0.76660,0.76900,0.75850,0.76040,585
1997.06.01,00:00,0.76000,0.76470,0.75580,0.76200,513
1997.06.08,00:00,0.76120,0.76350,0.75000,0.75110,436
1997.06.15,00:00,0.75110,0.75480,0.74650,0.75110,496
1997.06.22,00:00,0.75030,0.75380,0.74330,0.74510,397
1997.06.29,00:00,0.74540,0.75850,0.74410,0.74880,566
1997.07.06,00:00,0.74800,0.75020,0.73900,0.74060,567
1997.07.13,00:00,0.73940,0.74440,0.73120,0.74250,552
1997.07.20,00:00,0.74200,0.74350,0.73200,0.73800,535
1997.07.27,00:00,0.73770,0.75020,0.73310,0.73900,737
1997.08.03,00:00,0.73820,0.74280,0.72870,0.73510,579
1997.08.10,00:00,0.73530,0.74850,0.73500,0.74300,498
1997.08.17,00:00,0.74100,0.75150,0.73550,0.74900,562
1997.08.24,00:00,0.74660,0.75050,0.73080,0.73250,576
1997.08.31,00:00,0.73130,0.73470,0.72400,0.73150,563
1997.09.07,00:00,0.73000,0.73330,0.71920,0.72230,470
1997.09.14,00:00,0.72130,0.72400,0.71430,0.71800,466
1997.09.21,00:00,0.71900,0.72840,0.71800,0.72240,448
1997.09.28,00:00,0.72030,0.73180,0.71700,0.72970,543
1997.10.05,00:00,0.72800,0.74100,0.72110,0.74010,607
1997.10.12,00:00,0.73850,0.74310,0.73160,0.73440,515
1997.10.19,00:00,0.73100,0.73280,0.69000,0.69100,957
1997.10.26,00:00,0.68650,0.71680,0.68100,0.70120,1244
1997.11.02,00:00,0.70130,0.71790,0.69180,0.69310,823
1997.11.09,00:00,0.69300,0.70270,0.68900,0.69760,655
1997.11.16,00:00,0.69440,0.70550,0.68500,0.69430,798
1997.11.23,00:00,0.69500,0.69660,0.67600,0.68150,557
1997.11.30,00:00,0.68110,0.68300,0.66950,0.67150,674
1997.12.07,00:00,0.67050,0.67430,0.66050,0.66150,482
1997.12.14,00:00,0.66270,0.66440,0.64580,0.65350,904
1997.12.21,00:00,0.65210,0.66100,0.65070,0.65680,317
1997.12.28,00:00,0.65760,0.65980,0.64950,0.65100,386
1998.01.04,00:00,0.65010,0.65220,0.63170,0.64450,898
1998.01.11,00:00,0.64140,0.66910,0.63650,0.66600,871
1998.01.18,00:00,0.66600,0.66910,0.65580,0.66590,730
1998.01.25,00:00,0.66760,0.68850,0.66760,0.68300,919
1998.02.01,00:00,0.68070,0.68830,0.66800,0.67130,753
1998.02.08,00:00,0.66980,0.68400,0.66850,0.67350,691
1998.02.15,00:00,0.67050,0.67770,0.66110,0.67000,631
1998.02.22,00:00,0.66730,0.68190,0.66000,0.67950,615
1998.03.01,00:00,0.67910,0.68500,0.66400,0.66900,583
1998.03.08,00:00,0.66840,0.67820,0.66300,0.67700,459
1998.03.15,00:00,0.67620,0.67670,0.65780,0.66550,608
1998.03.22,00:00,0.66420,0.67810,0.66170,0.67180,543
1998.03.29,00:00,0.66990,0.67130,0.65250,0.65650,631
1998.04.05,00:00,0.65630,0.66320,0.65250,0.65660,570
1998.04.12,00:00,0.65670,0.65820,0.64500,0.65070,533
1998.04.19,00:00,0.64520,0.65570,0.64480,0.65110,442
1998.04.26,00:00,0.64990,0.65460,0.64230,0.64880,490
1998.05.03,00:00,0.64790,0.64900,0.63370,0.63530,492
1998.05.10,00:00,0.63290,0.63900,0.62280,0.62760,636
1998.05.17,00:00,0.62580,0.63470,0.61690,0.62730,624
1998.05.24,00:00,0.62590,0.62800,0.61580,0.62320,492
1998.05.31,00:00,0.62330,0.62460,0.59950,0.60270,770
1998.06.07,00:00,0.60250,0.60680,0.58100,0.58890,982
1998.06.14,00:00,0.58730,0.62880,0.57950,0.61400,1315
1998.06.21,00:00,0.60980,0.61470,0.59950,0.60240,832
1998.06.28,00:00,0.59950,0.62500,0.59870,0.61850,794
1998.07.05,00:00,0.61350,0.62270,0.61130,0.61650,484
1998.07.12,00:00,0.60920,0.63410,0.60250,0.62550,841
1998.07.19,00:00,0.62620,0.63200,0.61500,0.61690,624
1998.07.26,00:00,0.61600,0.61770,0.60530,0.60650,599
1998.08.02,00:00,0.60650,0.61160,0.59850,0.60020,523
1998.08.09,00:00,0.60000,0.60180,0.59010,0.59380,631
1998.08.16,00:00,0.59300,0.60000,0.58000,0.58350,680
1998.08.23,00:00,0.58210,0.58300,0.54900,0.56700,882
1998.08.30,00:00,0.56730,0.59200,0.56520,0.58900,966
1998.09.06,00:00,0.58720,0.60430,0.58100,0.59850,844
1998.09.13,00:00,0.59550,0.60000,0.58500,0.58730,777
1998.09.20,00:00,0.58620,0.59310,0.57500,0.58620,595
1998.09.27,00:00,0.58680,0.60040,0.58330,0.59620,721
1998.10.04,00:00,0.59660,0.62550,0.58130,0.61450,1392
1998.10.11,00:00,0.61470,0.64230,0.61470,0.63460,834
1998.10.18,00:00,0.63300,0.63600,0.61650,0.61880,774
1998.10.25,00:00,0.61890,0.62750,0.61150,0.62360,629
1998.11.01,00:00,0.62500,0.63630,0.62100,0.63580,521
1998.11.08,00:00,0.63460,0.64050,0.62170,0.63690,768
1998.11.15,00:00,0.63850,0.64840,0.62930,0.64280,744
1998.11.22,00:00,0.64030,0.64550,0.63230,0.63360,501
1998.11.29,00:00,0.63360,0.63850,0.61550,0.61720,698
1998.12.06,00:00,0.61800,0.62650,0.60950,0.62100,642
1998.12.13,00:00,0.61980,0.62710,0.61580,0.61990,624
1998.12.20,00:00,0.61900,0.62200,0.60850,0.60980,492
1998.12.27,00:00,0.60900,0.61600,0.60600,0.61160,461
1999.01.03,00:00,0.61160,0.63750,0.61160,0.63500,627
1999.01.10,00:00,0.63430,0.64450,0.62800,0.63430,790
1999.01.17,00:00,0.63420,0.64620,0.63150,0.63300,630
1999.01.24,00:00,0.63310,0.63430,0.62300,0.63050,517
1999.01.31,00:00,0.63130,0.65450,0.63050,0.65120,631
1999.02.07,00:00,0.65150,0.65550,0.63900,0.64700,661
1999.02.14,00:00,0.64700,0.65050,0.63140,0.64080,593
1999.02.21,00:00,0.64090,0.64200,0.61730,0.61910,660
1999.02.28,00:00,0.61850,0.63000,0.61610,0.62850,582
1999.03.07,00:00,0.62800,0.63950,0.62580,0.63640,551
1999.03.14,00:00,0.63520,0.63580,0.62330,0.63080,451
1999.03.21,00:00,0.63040,0.64260,0.62950,0.63550,511
1999.03.28,00:00,0.63400,0.63800,0.62550,0.63460,510
1999.04.04,00:00,0.63400,0.63600,0.62250,0.63120,466
1999.04.11,00:00,0.63250,0.64930,0.63220,0.64740,582
1999.04.18,00:00,0.64640,0.65750,0.64470,0.65170,546
1999.04.25,00:00,0.65170,0.66350,0.64540,0.66150,564
1999.05.02,00:00,0.66020,0.67480,0.65740,0.67240,665
1999.05.09,00:00,0.67050,0.67530,0.66300,0.66430,650
1999.05.16,00:00,0.66220,0.67450,0.65700,0.65780,659
1999.05.23,00:00,0.65740,0.66150,0.64600,0.65250,644
1999.05.30,00:00,0.65320,0.66020,0.64030,0.65920,599
1999.06.06,00:00,0.65700,0.66660,0.65480,0.66580,645
1999.06.13,00:00,0.66400,0.66570,0.64990,0.65250,477
1999.06.20,00:00,0.65280,0.66560,0.64810,0.66180,483
1999.06.27,00:00,0.66150,0.67120,0.65400,0.66850,589
1999.07.04,00:00,0.66790,0.67270,0.66050,0.66630,688
1999.07.11,00:00,0.66520,0.66720,0.65680,0.66080,524
1999.07.18,00:00,0.66060,0.66170,0.64150,0.64850,695
1999.07.25,00:00,0.65030,0.65450,0.64200,0.65170,516
1999.08.01,00:00,0.65050,0.66040,0.64680,0.65340,426
1999.08.08,00:00,0.65020,0.65500,0.64540,0.65250,493
1999.08.15,00:00,0.65330,0.65500,0.63300,0.63600,652
1999.08.22,00:00,0.63880,0.64130,0.62900,0.63190,541
1999.08.29,00:00,0.63000,0.64750,0.62820,0.64690,504
1999.09.05,00:00,0.64500,0.65500,0.64180,0.65150,470
1999.09.12,00:00,0.65120,0.65900,0.64500,0.64680,544
1999.09.19,00:00,0.64650,0.65420,0.64040,0.65090,564
1999.09.26,00:00,0.65300,0.66000,0.64820,0.65610,623
1999.10.03,00:00,0.65580,0.66700,0.65320,0.65480,485
1999.10.10,00:00,0.65350,0.65920,0.64550,0.64770,657
1999.10.17,00:00,0.64440,0.65200,0.64130,0.64910,433
1999.10.24,00:00,0.64880,0.65420,0.63580,0.63920,532
1999.10.31,00:00,0.63850,0.64570,0.63400,0.63950,531
1999.11.07,00:00,0.63890,0.64600,0.63580,0.64540,400
1999.11.14,00:00,0.64710,0.64780,0.63680,0.64000,394
1999.11.21,00:00,0.63930,0.64000,0.63060,0.63510,478
1999.11.28,00:00,0.63360,0.64000,0.62950,0.63250,511
1999.12.05,00:00,0.63290,0.64170,0.63030,0.63530,464
1999.12.12,00:00,0.63530,0.64670,0.63170,0.64300,495
1999.12.19,00:00,0.64280,0.64740,0.64050,0.64350,391
1999.12.26,00:00,0.64340,0.65800,0.64190,0.65750,397
2000.01.02,00:00,0.65610,0.66200,0.65180,0.65500,527
2000.01.09,00:00,0.65480,0.66970,0.65230,0.66620,459
2000.01.16,00:00,0.66470,0.66820,0.66130,0.66260,442
2000.01.23,00:00,0.65890,0.66000,0.62250,0.63510,902
2000.01.30,00:00,0.63880,0.64150,0.62830,0.63870,818
2000.02.06,00:00,0.63790,0.64350,0.62610,0.63200,679
2000.02.13,00:00,0.63160,0.63600,0.62360,0.62950,556
2000.02.20,00:00,0.62860,0.63000,0.61300,0.61510,599
2000.02.27,00:00,0.61650,0.61950,0.60230,0.60850,669
2000.03.05,00:00,0.60820,0.61700,0.60050,0.61490,510
2000.03.12,00:00,0.61250,0.61990,0.60480,0.60700,580
2000.03.19,00:00,0.60670,0.61160,0.60150,0.60800,400
2000.03.26,00:00,0.61050,0.61700,0.60190,0.60800,615
2000.04.02,00:00,0.60670,0.61050,0.59580,0.59900,561
2000.04.09,00:00,0.59690,0.60080,0.59350,0.59800,456
2000.04.16,00:00,0.60260,0.60460,0.58850,0.59500,536
2000.04.23,00:00,0.59200,0.59750,0.58250,0.58380,496
2000.04.30,00:00,0.58480,0.59800,0.57850,0.59650,598
2000.05.07,00:00,0.59590,0.59750,0.57450,0.58000,744
2000.05.14,00:00,0.58210,0.58280,0.56450,0.57420,741
2000.05.21,00:00,0.57200,0.57860,0.56640,0.57500,616
2000.05.28,00:00,0.57400,0.58290,0.56860,0.58020,678
2000.06.04,00:00,0.58150,0.59410,0.57750,0.58750,677
2000.06.11,00:00,0.58600,0.60960,0.58550,0.60630,658
2000.06.18,00:00,0.60550,0.60780,0.59350,0.59500,545
2000.06.25,00:00,0.59430,0.60540,0.59130,0.59530,509
2000.07.02,00:00,0.59710,0.60210,0.58600,0.59260,484
2000.07.09,00:00,0.59120,0.59610,0.58200,0.58440,529
2000.07.16,00:00,0.58390,0.58970,0.57450,0.58670,605
2000.07.23,00:00,0.58500,0.59400,0.58230,0.58820,620
2000.07.30,00:00,0.58700,0.58780,0.57560,0.58660,629
2000.08.06,00:00,0.58640,0.58950,0.57630,0.57880,511
2000.08.13,00:00,0.57900,0.59500,0.57680,0.59050,509
2000.08.20,00:00,0.59070,0.59180,0.56650,0.57450,637
2000.08.27,00:00,0.57300,0.57970,0.56800,0.57710,621
2000.09.03,00:00,0.57630,0.57880,0.55250,0.55550,672
2000.09.10,00:00,0.55640,0.56300,0.54400,0.54470,605
2000.09.17,00:00,0.54520,0.56050,0.53600,0.54450,807
2000.09.24,00:00,0.54900,0.55250,0.53840,0.54300,635
2000.10.01,00:00,0.54270,0.54850,0.52850,0.53370,625
2000.10.08,00:00,0.53370,0.53800,0.52630,0.52750,539
2000.10.15,00:00,0.52810,0.53050,0.51530,0.52980,641
2000.10.22,00:00,0.53140,0.53250,0.51440,0.52370,714
2000.10.29,00:00,0.52240,0.53450,0.51150,0.52650,1026
2000.11.05,00:00,0.52700,0.53310,0.51800,0.51960,609
2000.11.12,00:00,0.51910,0.52450,0.51750,0.51900,434
2000.11.19,00:00,0.51870,0.52910,0.50670,0.52370,776
2000.11.26,00:00,0.52100,0.54020,0.51860,0.53770,684
2000.12.03,00:00,0.53700,0.55200,0.53660,0.54840,614
2000.12.10,00:00,0.54420,0.54830,0.53700,0.54570,517
2000.12.17,00:00,0.54360,0.55840,0.53960,0.55670,535
2000.12.24,00:00,0.55650,0.56020,0.55150,0.55900,456
2000.12.31,00:00,0.55840,0.57300,0.55430,0.57150,528
2001.01.07,00:00,0.57120,0.57270,0.55200,0.55680,721
2001.01.14,00:00,0.55660,0.56310,0.54900,0.55650,647
2001.01.21,00:00,0.55520,0.55840,0.54100,0.54480,642
2001.01.28,00:00,0.54300,0.55720,0.54050,0.55330,583
2001.02.04,00:00,0.55030,0.55390,0.53200,0.53670,599
2001.02.11,00:00,0.53740,0.54040,0.52280,0.52900,512
2001.02.18,00:00,0.52930,0.53160,0.52030,0.52730,591
2001.02.25,00:00,0.52640,0.53080,0.52070,0.53050,457
2001.03.04,00:00,0.52880,0.52980,0.50610,0.50910,671
2001.03.11,00:00,0.50870,0.51190,0.49000,0.49430,576
2001.03.18,00:00,0.49480,0.50480,0.48900,0.49640,657
2001.03.25,00:00,0.49410,0.50210,0.48470,0.48600,700
2001.04.01,00:00,0.48580,0.49960,0.47730,0.49880,703
2001.04.08,00:00,0.49910,0.51090,0.49040,0.50800,451
2001.04.15,00:00,0.50740,0.51970,0.49220,0.51520,883
2001.04.22,00:00,0.51350,0.52020,0.50100,0.50980,830
2001.04.29,00:00,0.50800,0.52430,0.50610,0.51950,607
2001.05.06,00:00,0.51960,0.52730,0.51460,0.52200,536
2001.05.13,00:00,0.52070,0.53050,0.51500,0.53020,556
2001.05.20,00:00,0.52930,0.53230,0.50800,0.52070,646
2001.05.27,00:00,0.51990,0.52210,0.50270,0.50880,619
2001.06.03,00:00,0.50810,0.52600,0.50420,0.52600,577
2001.06.10,00:00,0.52460,0.53030,0.51990,0.52480,567
2001.06.17,00:00,0.52360,0.52780,0.51450,0.51610,515
2001.06.24,00:00,0.51680,0.52300,0.50430,0.51100,539
2001.07.01,00:00,0.51080,0.52040,0.50360,0.50930,566
2001.07.08,00:00,0.50840,0.51390,0.50090,0.50830,557
2001.07.15,00:00,0.51040,0.51920,0.50380,0.50600,553
2001.07.22,00:00,0.50590,0.51240,0.50350,0.50870,421
2001.07.29,00:00,0.50810,0.52170,0.50180,0.51680,457
2001.08.05,00:00,0.51640,0.52080,0.50860,0.51290,21780
2001.08.12,00:00,0.51340,0.53830,0.51290,0.53570,22539
2001.08.19,00:00,0.53650,0.53990,0.52830,0.53460,19758
2001.08.26,00:00,0.53400,0.53560,0.52470,0.52940,16823
2001.09.02,00:00,0.52840,0.52910,0.51570,0.51950,16876
2001.09.09,00:00,0.51840,0.52420,0.51100,0.51500,16750
2001.09.16,00:00,0.51670,0.51720,0.48150,0.48490,19121
2001.09.23,00:00,0.48590,0.49840,0.48150,0.49130,18555
2001.09.30,00:00,0.49260,0.50860,0.48950,0.50690,16930
2001.10.07,00:00,0.50780,0.50890,0.49610,0.50580,18449
2001.10.14,00:00,0.51150,0.51770,0.50480,0.50920,18542
2001.10.21,00:00,0.50890,0.51150,0.50040,0.50240,14111
2001.10.28,00:00,0.50140,0.51350,0.49960,0.50880,16755
2001.11.04,00:00,0.50760,0.51810,0.50570,0.51490,15525
2001.11.11,00:00,0.51890,0.52540,0.51510,0.52220,17991
2001.11.18,00:00,0.52320,0.52390,0.51420,0.51800,16899
2001.11.25,00:00,0.51770,0.52450,0.51600,0.52180,15742
2001.12.02,00:00,0.52070,0.52270,0.51240,0.51810,13865
2001.12.09,00:00,0.51480,0.52170,0.51320,0.51780,11930
2001.12.16,00:00,0.51930,0.52020,0.50370,0.50870,14879
2001.12.23,00:00,0.50940,0.51240,0.50530,0.51060,7315
2001.12.30,00:00,0.51130,0.52190,0.50800,0.52100,10368
2002.01.06,00:00,0.52040,0.52780,0.51680,0.52000,15422
2002.01.13,00:00,0.51850,0.52040,0.51140,0.51430,2658
2002.01.20,00:00,0.51470,0.52240,0.51380,0.51670,10236
2002.01.27,00:00,0.51660,0.51820,0.50480,0.50940,12528
2002.02.03,00:00,0.50910,0.51310,0.50510,0.51130,9787
2002.02.10,00:00,0.51100,0.51930,0.50660,0.51710,9653
2002.02.17,00:00,0.51720,0.52000,0.51110,0.51270,10444
2002.02.24,00:00,0.51340,0.52080,0.51100,0.51940,13466
2002.03.03,00:00,0.52080,0.52720,0.51810,0.52310,12784
2002.03.10,00:00,0.52180,0.52660,0.51800,0.52590,9770
2002.03.17,00:00,0.52590,0.53410,0.52110,0.53070,13117
2002.03.24,00:00,0.53060,0.53620,0.52620,0.53330,12010
2002.03.31,00:00,0.53320,0.53660,0.52820,0.53060,12442
2002.04.07,00:00,0.52910,0.53730,0.52530,0.53430,12435
2002.04.14,00:00,0.53380,0.54190,0.52970,0.54040,28051
2002.04.21,00:00,0.53970,0.54630,0.53680,0.54370,29245
2002.04.28,00:00,0.54380,0.54550,0.53370,0.53940,34476
2002.05.05,00:00,0.54080,0.54590,0.53750,0.54500,27207
2002.05.12,00:00,0.54390,0.55380,0.54320,0.55260,34556
2002.05.19,00:00,0.55260,0.56180,0.55030,0.55650,39676
2002.05.26,00:00,0.55580,0.57040,0.55500,0.56740,26953
2002.06.02,00:00,0.56750,0.57830,0.56630,0.57340,27090
2002.06.09,00:00,0.57130,0.57280,0.55720,0.56040,47282
2002.06.16,00:00,0.56080,0.57550,0.55510,0.57490,46202
2002.06.23,00:00,0.57430,0.58040,0.55800,0.56360,61990
2002.06.30,00:00,0.56300,0.56500,0.55350,0.55750,47670
2002.07.07,00:00,0.55710,0.57170,0.55480,0.55880,51011
2002.07.14,00:00,0.55970,0.56520,0.54930,0.55650,49000
2002.07.21,00:00,0.55700,0.55740,0.53430,0.53630,59518
2002.07.28,00:00,0.53600,0.54870,0.53500,0.53930,51872
2002.08.04,00:00,0.53880,0.54010,0.52280,0.53590,64211
2002.08.11,00:00,0.53560,0.54750,0.53360,0.54620,48794
2002.08.18,00:00,0.54570,0.54750,0.53850,0.54320,44991
2002.08.25,00:00,0.54370,0.55510,0.54210,0.55080,14978
2002.09.01,00:00,0.55010,0.55310,0.53930,0.54740,49257
2002.09.08,00:00,0.54760,0.55420,0.54480,0.55020,51748
2002.09.15,00:00,0.54990,0.55280,0.54330,0.54620,53576
2002.09.22,00:00,0.54580,0.54870,0.54120,0.54380,53436
2002.09.29,00:00,0.54350,0.54820,0.53990,0.54640,16746
2002.10.06,00:00,0.54640,0.55120,0.54560,0.54960,18030
2002.10.13,00:00,0.54770,0.55340,0.54480,0.55020,17790
2002.10.20,00:00,0.55020,0.55710,0.54910,0.55570,18941
2002.10.27,00:00,0.55590,0.56000,0.55110,0.55940,16303
2002.11.03,00:00,0.55970,0.56810,0.55930,0.56460,17785
2002.11.10,00:00,0.56370,0.56630,0.55790,0.56370,17231
2002.11.17,00:00,0.56360,0.56530,0.55640,0.56370,20222
2002.11.24,00:00,0.56460,0.56510,0.55440,0.56080,16424
2002.12.01,00:00,0.56080,0.56280,0.55610,0.56110,17835
2002.12.08,00:00,0.56310,0.56880,0.55830,0.56510,19037
2002.12.15,00:00,0.56500,0.56960,0.55970,0.56260,18185
2002.12.22,00:00,0.56380,0.56520,0.56010,0.56120,11883
2002.12.29,00:00,0.56190,0.56820,0.55960,0.56770,13166
2003.01.05,00:00,0.56720,0.58450,0.56690,0.58330,20562
2003.01.12,00:00,0.58270,0.59330,0.58060,0.59200,18957
2003.01.19,00:00,0.59110,0.59390,0.58440,0.59210,12265
2003.01.26,00:00,0.59150,0.59470,0.58540,0.58720,12360
2003.02.02,00:00,0.58600,0.59380,0.58240,0.58990,11480
2003.02.09,00:00,0.59030,0.59750,0.58660,0.59220,16876
2003.02.16,00:00,0.59120,0.60000,0.58820,0.59760,17191
2003.02.23,00:00,0.59750,0.60940,0.59570,0.60890,18702
2003.03.02,00:00,0.60790,0.61850,0.60580,0.61330,21296
2003.03.09,00:00,0.61280,0.61710,0.58920,0.59780,23778
2003.03.16,00:00,0.59810,0.60290,0.58790,0.59110,21762
2003.03.23,00:00,0.59270,0.60220,0.59200,0.60020,18813
2003.03.30,00:00,0.60000,0.60670,0.59530,0.60090,20433
2003.04.06,00:00,0.59970,0.60820,0.59260,0.60570,19644
2003.04.13,00:00,0.60490,0.61720,0.60130,0.61460,16094
2003.04.20,00:00,0.61450,0.62340,0.61250,0.61660,18488
2003.04.27,00:00,0.61600,0.63460,0.61460,0.63180,19278
2003.05.04,00:00,0.63010,0.64750,0.62920,0.64670,20251
2003.05.11,00:00,0.64630,0.65390,0.63720,0.65330,20175
2003.05.18,00:00,0.65830,0.66190,0.65220,0.66030,21071
2003.05.25,00:00,0.65960,0.66280,0.64280,0.65270,23786
2003.06.01,00:00,0.65020,0.67120,0.64800,0.65840,25299
2003.06.08,00:00,0.65910,0.66910,0.65400,0.66860,20820
2003.06.15,00:00,0.66840,0.67410,0.66470,0.66850,22364
2003.06.22,00:00,0.66770,0.67330,0.66100,0.66790,22473
2003.06.29,00:00,0.66620,0.68420,0.66530,0.67860,20386
2003.07.06,00:00,0.67910,0.68500,0.64860,0.65980,32524
2003.07.13,00:00,0.65720,0.66180,0.64400,0.64820,27619
2003.07.20,00:00,0.64700,0.66690,0.64580,0.66340,26559
2003.07.27,00:00,0.66240,0.66810,0.64450,0.65160,27869
2003.08.03,00:00,0.65240,0.65420,0.64090,0.65240,27767
2003.08.10,00:00,0.65290,0.66160,0.65030,0.66030,42376
2003.08.17,00:00,0.66060,0.66260,0.64700,0.65250,47633
2003.08.24,00:00,0.65130,0.65390,0.63530,0.64720,42787
2003.08.31,00:00,0.64710,0.64880,0.63390,0.64880,14284
2003.09.07,00:00,0.64900,0.66500,0.64480,0.66340,11878
2003.09.14,00:00,0.66370,0.67390,0.65860,0.67270,12954
2003.09.21,00:00,0.67760,0.68390,0.67340,0.67380,15398
2003.09.28,00:00,0.67580,0.68820,0.66810,0.67910,19701
2003.10.05,00:00,0.67880,0.69600,0.67590,0.69160,18472
2003.10.12,00:00,0.69270,0.69450,0.68240,0.69260,20056
2003.10.19,00:00,0.69390,0.70770,0.68910,0.69920,17096
2003.10.26,00:00,0.69940,0.71100,0.69910,0.70840,18032
2003.11.02,00:00,0.70750,0.71270,0.69420,0.70970,22243
2003.11.09,00:00,0.71040,0.72270,0.70950,0.72080,16201
2003.11.16,00:00,0.72050,0.72690,0.70930,0.72380,18057
2003.11.23,00:00,0.72270,0.72600,0.71540,0.72440,12323
2003.11.30,00:00,0.72430,0.73870,0.72310,0.73680,15265
2003.12.07,00:00,0.73650,0.74380,0.73310,0.74190,16065
2003.12.14,00:00,0.73690,0.74580,0.73450,0.73600,17280
2003.12.21,00:00,0.73650,0.74480,0.73110,0.74090,11681
2003.12.28,00:00,0.74140,0.75940,0.74060,0.75810,10104
2004.01.04,00:00,0.75940,0.77860,0.75890,0.77680,19565
2004.01.11,00:00,0.77730,0.78160,0.76100,0.76370,22156
2004.01.18,00:00,0.76320,0.77990,0.75290,0.77120,24044
2004.01.25,00:00,0.77150,0.78160,0.75420,0.76420,39406
2004.02.01,00:00,0.76430,0.77140,0.75570,0.77100,29881
2004.02.08,00:00,0.76630,0.79500,0.76510,0.78980,23975
2004.02.15,00:00,0.78950,0.80080,0.76410,0.77110,26841
2004.02.22,00:00,0.77010,0.78200,0.76510,0.77370,27082
2004.02.29,00:00,0.77280,0.77760,0.74010,0.75940,26632
2004.03.07,00:00,0.75850,0.76610,0.72520,0.73350,29941
2004.03.14,00:00,0.73060,0.75520,0.72890,0.74910,23449
2004.03.21,00:00,0.74780,0.75610,0.73700,0.74700,23025
2004.03.28,00:00,0.74580,0.76940,0.74330,0.75710,19870
2004.04.04,00:00,0.75600,0.76970,0.75100,0.76340,17466
2004.04.11,00:00,0.76270,0.76920,0.72960,0.74400,21749
2004.04.18,00:00,0.74580,0.75160,0.72320,0.73390,22602
2004.04.25,00:00,0.72980,0.73710,0.71220,0.72080,21680
2004.05.02,00:00,0.72280,0.73450,0.70160,0.70350,20562
2004.05.09,00:00,0.70210,0.70470,0.68280,0.69150,26194
2004.05.16,00:00,0.69200,0.70380,0.67940,0.69790,22698
2004.05.23,00:00,0.69920,0.72050,0.69440,0.71460,22080
2004.05.30,00:00,0.71450,0.71780,0.68450,0.69590,24980
2004.06.06,00:00,0.69850,0.70800,0.68610,0.69160,18461
2004.06.13,00:00,0.69200,0.69960,0.67730,0.68890,24859
2004.06.20,00:00,0.69070,0.70300,0.68430,0.70060,21496
2004.06.27,00:00,0.69970,0.71420,0.68760,0.71330,34012
2004.07.04,00:00,0.71270,0.72460,0.71140,0.72210,32072
2004.07.11,00:00,0.72290,0.73280,0.71940,0.73250,29698
2004.07.18,00:00,0.73200,0.73510,0.70730,0.70960,35999
2004.07.25,00:00,0.70880,0.71450,0.69280,0.70270,39689
2004.08.01,00:00,0.70370,0.71620,0.69890,0.71380,28632
2004.08.08,00:00,0.71380,0.71890,0.70570,0.71690,24859
2004.08.15,00:00,0.71690,0.72660,0.71280,0.72380,27904
2004.08.22,00:00,0.72320,0.72380,0.70010,0.70270,29948
2004.08.29,00:00,0.70180,0.70790,0.68870,0.69140,21342
2004.09.05,00:00,0.69160,0.69970,0.68520,0.69550,22044
2004.09.12,00:00,0.69660,0.70500,0.69320,0.69810,22363
2004.09.19,00:00,0.69830,0.71720,0.69730,0.71460,22106
2004.09.26,00:00,0.71390,0.72900,0.71000,0.72590,24898
2004.10.03,00:00,0.72390,0.73700,0.71840,0.73490,21312
2004.10.10,00:00,0.73780,0.73850,0.72130,0.73130,19960
2004.10.17,00:00,0.73090,0.74090,0.72210,0.74000,19786
2004.10.24,00:00,0.74230,0.75120,0.73670,0.74850,24036
2004.10.31,00:00,0.74950,0.76370,0.74320,0.76290,23129
2004.11.07,00:00,0.76350,0.77050,0.75500,0.76920,24257
2004.11.14,00:00,0.76910,0.78660,0.76850,0.78380,26988
2004.11.21,00:00,0.78520,0.79500,0.77710,0.79070,26050
2004.11.28,00:00,0.79020,0.79050,0.76940,0.78180,42589
2004.12.05,00:00,0.78030,0.78270,0.74410,0.75130,41078
2004.12.12,00:00,0.74890,0.76720,0.74860,0.76230,37753
2004.12.19,00:00,0.76500,0.77150,0.76120,0.76900,24161
2004.12.26,00:00,0.76920,0.78480,0.76810,0.78300,20479
2005.01.02,00:00,0.78240,0.78400,0.75390,0.75740,33060
2005.01.09,00:00,0.75750,0.76980,0.75480,0.75890,28660
2005.01.16,00:00,0.75850,0.77160,0.75040,0.76940,26058
2005.01.23,00:00,0.77020,0.78060,0.76270,0.77490,22869
2005.01.30,00:00,0.77380,0.77920,0.76700,0.77040,22769
2005.02.06,00:00,0.76750,0.78660,0.76090,0.78620,24313
2005.02.13,00:00,0.78600,0.79000,0.77850,0.78850,21517
2005.02.20,00:00,0.78940,0.79600,0.78060,0.78660,22618
2005.02.27,00:00,0.78670,0.79480,0.77700,0.79080,27183
2005.03.06,00:00,0.78970,0.79920,0.78690,0.79310,38182
2005.03.13,00:00,0.79300,0.79590,0.78600,0.79500,21553
2005.03.20,00:00,0.79370,0.79440,0.76960,0.77150,20542
2005.03.27,00:00,0.77220,0.77790,0.76680,0.77110,32685
2005.04.03,00:00,0.76880,0.77390,0.76250,0.77180,30707
2005.04.10,00:00,0.77170,0.78060,0.76500,0.76800,25186
2005.04.17,00:00,0.76870,0.78350,0.76340,0.78130,25700
2005.04.24,00:00,0.78170,0.78440,0.77410,0.78130,19034
2005.05.01,00:00,0.78030,0.78300,0.77200,0.77540,18208
2005.05.08,00:00,0.77360,0.77950,0.76010,0.76140,21442
2005.05.15,00:00,0.76160,0.76220,0.75290,0.75610,19034
2005.05.22,00:00,0.75480,0.76510,0.75450,0.76320,17328
2005.05.29,00:00,0.76180,0.76360,0.74730,0.75650,20621
2005.06.05,00:00,0.75560,0.77080,0.75510,0.76130,19339
2005.06.12,00:00,0.76220,0.77850,0.75890,0.77800,21578
2005.06.19,00:00,0.77560,0.78130,0.76650,0.76950,19779
2005.06.26,00:00,0.76970,0.77050,0.74950,0.75190,21420
2005.07.03,00:00,0.75090,0.75220,0.73650,0.74190,22870
2005.07.10,00:00,0.74220,0.75780,0.74180,0.74920,19269
2005.07.17,00:00,0.74850,0.76900,0.74730,0.76340,20448
2005.07.24,00:00,0.76220,0.76500,0.75280,0.75660,19127
2005.07.31,00:00,0.75590,0.77430,0.75490,0.76820,19501
2005.08.07,00:00,0.76800,0.77530,0.75840,0.77170,18699
2005.08.14,00:00,0.77300,0.77420,0.74950,0.75120,17508
2005.08.21,00:00,0.75140,0.76120,0.75090,0.75580,15219
2005.08.28,00:00,0.75490,0.76640,0.74560,0.76490,18351
2005.09.04,00:00,0.76380,0.77550,0.76340,0.77500,15630
2005.09.11,00:00,0.77460,0.77610,0.76400,0.76750,18153
2005.09.18,00:00,0.76580,0.77290,0.75680,0.75690,18844
2005.09.25,00:00,0.75680,0.76410,0.75290,0.76190,17405
2005.10.02,00:00,0.76240,0.76440,0.75510,0.75670,17507
2005.10.09,00:00,0.75640,0.76050,0.74600,0.75210,16360
2005.10.16,00:00,0.75400,0.75470,0.74370,0.74880,17333
2005.10.23,00:00,0.74860,0.75990,0.74670,0.74900,16069
2005.10.30,00:00,0.74880,0.75190,0.73090,0.73300,17185
2005.11.06,00:00,0.73180,0.73780,0.72840,0.73260,16335
2005.11.13,00:00,0.73210,0.73520,0.72610,0.73290,60998
2005.11.20,00:00,0.73300,0.74040,0.73190,0.73560,44001
2005.11.27,00:00,0.73370,0.74900,0.73220,0.74790,47642
2005.12.04,00:00,0.74640,0.75420,0.74420,0.75030,39596
2005.12.11,00:00,0.74870,0.75790,0.74180,0.74350,39339
2005.12.18,00:00,0.74430,0.74690,0.72680,0.72880,34331
2005.12.25,00:00,0.72860,0.73440,0.72310,0.73260,31702
2006.01.01,00:00,0.73290,0.75520,0.73150,0.75390,28859
2006.01.08,00:00,0.75410,0.75670,0.74800,0.75500,34092
2006.01.15,00:00,0.75340,0.75770,0.74430,0.74780,33639
2006.01.22,00:00,0.74740,0.75590,0.74740,0.74920,33994
2006.01.29,00:00,0.75010,0.75880,0.74750,0.74870,21324
2006.02.05,00:00,0.74880,0.74920,0.73660,0.73750,27579
2006.02.12,00:00,0.73660,0.74430,0.73470,0.73930,27640
2006.02.19,00:00,0.73910,0.74220,0.73430,0.73930,26184
2006.02.26,00:00,0.73950,0.74860,0.73610,0.74500,27748
2006.03.05,00:00,0.74410,0.74820,0.73030,0.73180,29383
2006.03.12,00:00,0.73080,0.74100,0.72650,0.72720,32186
2006.03.19,00:00,0.72750,0.72760,0.70600,0.70850,31362
2006.03.26,00:00,0.70770,0.71730,0.70150,0.71620,27160
2006.04.02,00:00,0.71540,0.73420,0.71150,0.72610,26929
2006.04.09,00:00,0.72600,0.73430,0.72370,0.72770,24520
2006.04.16,00:00,0.72780,0.74830,0.72700,0.74400,24662
2006.04.23,00:00,0.74680,0.76050,0.74190,0.75930,29305
2006.04.30,00:00,0.75880,0.77420,0.75520,0.77200,26069
2006.05.07,00:00,0.77270,0.77910,0.76320,0.77280,45055
2006.05.14,00:00,0.77410,0.77470,0.75250,0.75810,43834
2006.05.21,00:00,0.75590,0.76200,0.74660,0.75730,43106
2006.05.28,00:00,0.76200,0.76500,0.74400,0.75200,36536
2006.06.04,00:00,0.75080,0.75430,0.73910,0.74820,43644
2006.06.11,00:00,0.74840,0.74960,0.73430,0.73830,41155
2006.06.18,00:00,0.73760,0.74200,0.73040,0.73160,42620
2006.06.25,00:00,0.73110,0.74510,0.72680,0.74210,41439
2006.07.02,00:00,0.74290,0.75280,0.73990,0.75120,37019
2006.07.09,00:00,0.75130,0.75650,0.74590,0.75300,43889
2006.07.16,00:00,0.75310,0.75420,0.74040,0.75210,41380
2006.07.23,00:00,0.75230,0.76730,0.75010,0.76730,35048
2006.07.30,00:00,0.76680,0.76800,0.75840,0.76550,46063
2006.08.06,00:00,0.76650,0.77120,0.75630,0.76610,43788
2006.08.13,00:00,0.76580,0.76990,0.75620,0.75920,41544
2006.08.20,00:00,0.75940,0.76680,0.75490,0.75710,39316
2006.08.27,00:00,0.75730,0.76700,0.75620,0.76690,37647
2006.09.03,00:00,0.76680,0.77200,0.75290,0.75390,41916
2006.09.10,00:00,0.75310,0.75690,0.74830,0.75290,39703
2006.09.17,00:00,0.75190,0.75780,0.74920,0.74980,40786
2006.09.24,00:00,0.75080,0.75550,0.74340,0.74570,40052
2006.10.01,00:00,0.74510,0.74940,0.74140,0.74260,30016
2006.10.08,00:00,0.74290,0.75300,0.74150,0.75090,24637
2006.10.15,00:00,0.75070,0.76030,0.74920,0.75860,24339
2006.10.22,00:00,0.75850,0.76950,0.75580,0.76800,24501
2006.10.29,00:00,0.76820,0.77660,0.76710,0.76990,27507
2006.11.05,00:00,0.76950,0.77610,0.76440,0.76680,23170
2006.11.12,00:00,0.76670,0.76940,0.76130,0.76870,26331
2006.11.19,00:00,0.76950,0.77890,0.76740,0.77860,23402
2006.11.26,00:00,0.78040,0.79260,0.77610,0.78870,22804
2006.12.03,00:00,0.79040,0.79290,0.78350,0.78530,22588
2006.12.10,00:00,0.78480,0.79010,0.77700,0.78140,24265
2006.12.17,00:00,0.78000,0.78780,0.77800,0.78320,20688
2006.12.24,00:00,0.78580,0.79230,0.78060,0.78830,15338
2006.12.31,00:00,0.78890,0.79790,0.77820,0.77850,18844
2007.01.07,00:00,0.77890,0.78380,0.77590,0.78350,19231
2007.01.14,00:00,0.78300,0.79040,0.78120,0.78950,15133
2007.01.21,00:00,0.78890,0.79360,0.77180,0.77340,16797
2007.01.28,00:00,0.77370,0.77680,0.76950,0.77470,10936
2007.02.04,00:00,0.77370,0.78200,0.77250,0.77620,9940
2007.02.11,00:00,0.77700,0.78710,0.77070,0.78680,11108
2007.02.18,00:00,0.78690,0.79230,0.78450,0.79150,9175
2007.02.25,00:00,0.79220,0.79440,0.78100,0.78200,16337
2007.03.04,00:00,0.78220,0.78220,0.76800,0.77990,15449
2007.03.11,00:00,0.78080,0.79730,0.77960,0.79570,15858
2007.03.18,00:00,0.79410,0.80900,0.79330,0.80470,16058
2007.03.25,00:00,0.80510,0.81260,0.80270,0.80840,13978
2007.04.01,00:00,0.80980,0.82100,0.80620,0.81620,13567
2007.04.08,00:00,0.81650,0.83380,0.81510,0.83330,12166
2007.04.15,00:00,0.83420,0.83890,0.82810,0.83750,12000
2007.04.22,00:00,0.83740,0.83750,0.82320,0.82980,15348
2007.04.29,00:00,0.82850,0.83290,0.81690,0.82130,13260
2007.05.06,00:00,0.82100,0.83340,0.82030,0.83140,12796
2007.05.13,00:00,0.83180,0.83500,0.82020,0.82270,11635
2007.05.20,00:00,0.82380,0.82660,0.81730,0.81770,11383
2007.05.27,00:00,0.81830,0.83290,0.81620,0.83290,10241
2007.06.03,00:00,0.83240,0.84750,0.83090,0.84470,17182
2007.06.10,00:00,0.84400,0.84460,0.83320,0.84200,15714
2007.06.17,00:00,0.84140,0.84930,0.83980,0.84710,16092
2007.06.24,00:00,0.84820,0.85210,0.83550,0.84920,21514
2007.07.01,00:00,0.85260,0.86080,0.84960,0.85810,17087
2007.07.08,00:00,0.85800,0.87160,0.85650,0.87110,19660
2007.07.15,00:00,0.87000,0.88330,0.86960,0.88010,17119
2007.07.22,00:00,0.87970,0.88700,0.85090,0.85170,31460
2007.07.29,00:00,0.84820,0.86140,0.84460,0.85470,34952
2007.08.05,00:00,0.85340,0.86620,0.83990,0.84440,29906
2007.08.12,00:00,0.84640,0.85040,0.76750,0.79750,56891
2007.08.19,00:00,0.79910,0.82720,0.78910,0.82720,45590
2007.08.26,00:00,0.82780,0.83330,0.80500,0.81840,38649
2007.09.02,00:00,0.81630,0.83090,0.81600,0.82640,31412
2007.09.09,00:00,0.82660,0.84380,0.81710,0.84190,33295
2007.09.16,00:00,0.84170,0.87030,0.82750,0.86680,34832
2007.09.23,00:00,0.86780,0.88860,0.86120,0.88780,29321
2007.09.30,00:00,0.88850,0.90030,0.87940,0.89730,33560
2007.10.07,00:00,0.89970,0.90590,0.89150,0.90450,30742
2007.10.14,00:00,0.90590,0.90770,0.88150,0.89020,47577
2007.10.21,00:00,0.88910,0.91860,0.87480,0.91820,46250
2007.10.28,00:00,0.92160,0.93420,0.91070,0.92310,49463
2007.11.04,00:00,0.92140,0.93980,0.91000,0.91150,53590
2007.11.11,00:00,0.90520,0.90880,0.87520,0.89260,60333
2007.11.18,00:00,0.89420,0.89950,0.86510,0.87750,49547
2007.11.25,00:00,0.87800,0.89180,0.86660,0.88390,51380
2007.12.02,00:00,0.88520,0.88520,0.86590,0.87600,38284
2007.12.09,00:00,0.87560,0.89060,0.86040,0.86050,38725
2007.12.16,00:00,0.86340,0.86950,0.85510,0.86730,31895
2007.12.23,00:00,0.86800,0.87930,0.86720,0.87620,9812
2007.12.30,00:00,0.87690,0.88460,0.86990,0.87210,19359
2008.01.06,00:00,0.87140,0.89750,0.86830,0.89080,39624
2008.01.13,00:00,0.89160,0.90180,0.86990,0.87900,55731
2008.01.20,00:00,0.88110,0.88530,0.85130,0.87950,64125
2008.01.27,00:00,0.88010,0.90460,0.87690,0.90420,45778
2008.02.03,00:00,0.90250,0.91000,0.88740,0.89550,47409
2008.02.10,00:00,0.89640,0.90960,0.89220,0.90900,38440
2008.02.17,00:00,0.90770,0.92490,0.90680,0.92390,37112
2008.02.24,00:00,0.92320,0.94960,0.92160,0.93070,43319
2008.03.02,00:00,0.93010,0.94190,0.92170,0.92670,56139
2008.03.09,00:00,0.92710,0.94700,0.91470,0.93740,50588
2008.03.16,00:00,0.94100,0.94460,0.89530,0.90210,58068
2008.03.23,00:00,0.89920,0.92520,0.89790,0.91740,40021
2008.03.30,00:00,0.91650,0.92280,0.90310,0.92280,46298
2008.04.06,00:00,0.92090,0.93460,0.91780,0.92780,37921
2008.04.13,00:00,0.92560,0.94010,0.92050,0.93480,43004
2008.04.20,00:00,0.93350,0.95410,0.92900,0.93340,44609
2008.04.27,00:00,0.93410,0.94720,0.92750,0.93460,40388
2008.05.04,00:00,0.93480,0.95060,0.93420,0.94350,38016
2008.05.11,00:00,0.94120,0.95590,0.92910,0.95560,41680
2008.05.18,00:00,0.95580,0.96530,0.95100,0.95910,34445
2008.05.25,00:00,0.95930,0.96360,0.95120,0.95580,34896
2008.06.01,00:00,0.95460,0.96430,0.94860,0.96250,40763
2008.06.08,00:00,0.96180,0.96460,0.93270,0.93890,42519
2008.06.15,00:00,0.93930,0.95660,0.93700,0.95320,29924
2008.06.22,00:00,0.95330,0.96330,0.94930,0.96100,32966
2008.06.29,00:00,0.96070,0.96660,0.95110,0.96340,31163
2008.07.06,00:00,0.96260,0.97160,0.94750,0.96620,36374
2008.07.13,00:00,0.97010,0.98490,0.96630,0.97010,36494
2008.07.20,00:00,0.97210,0.97920,0.95390,0.95630,40902
2008.07.27,00:00,0.95450,0.95940,0.92850,0.92910,39414
2008.08.03,00:00,0.92980,0.93460,0.88680,0.88830,44100
2008.08.10,00:00,0.88640,0.89520,0.85910,0.86620,61244
2008.08.17,00:00,0.86650,0.88120,0.86250,0.86640,39262
2008.08.24,00:00,0.86740,0.86930,0.84930,0.85770,48302
2008.08.31,00:00,0.85640,0.85800,0.80290,0.81580,66833
2008.09.07,00:00,0.83280,0.83530,0.79000,0.82360,82972
2008.09.14,00:00,0.81820,0.83610,0.78020,0.83380,100051
2008.09.21,00:00,0.83690,0.85180,0.82400,0.83090,74412
2008.09.28,00:00,0.82760,0.83290,0.76980,0.77390,81538
2008.10.05,00:00,0.74590,0.74830,0.63290,0.64310,84921
2008.10.12,00:00,0.67870,0.72370,0.64940,0.68870,69337
2008.10.19,00:00,0.69160,0.70610,0.60560,0.62230,62870
2008.10.26,00:00,0.61340,0.68910,0.60070,0.67070,68302
2008.11.02,00:00,0.67090,0.70150,0.65420,0.68860,64740
2008.11.09,00:00,0.68880,0.69820,0.63390,0.63930,60646
2008.11.16,00:00,0.63920,0.65950,0.60740,0.63560,68495
2008.11.23,00:00,0.63590,0.66170,0.62300,0.65170,53213
2008.11.30,00:00,0.65180,0.65370,0.62890,0.64640,49242
2008.12.07,00:00,0.64630,0.67990,0.64620,0.66230,54025
2008.12.14,00:00,0.66240,0.71370,0.66210,0.68100,55181
2008.12.21,00:00,0.68110,0.68910,0.67600,0.68450,29506
2008.12.28,00:00,0.68460,0.71500,0.68380,0.71380,33250
2009.01.04,00:00,0.71410,0.72670,0.69550,0.69940,76248
2009.01.11,00:00,0.69930,0.69950,0.65360,0.67820,63036
2009.01.18,00:00,0.67810,0.68400,0.64150,0.65320,74987
2009.01.25,00:00,0.65310,0.67320,0.63440,0.63580,68415
2009.02.01,00:00,0.63590,0.68010,0.62470,0.67200,69062
2009.02.08,00:00,0.67210,0.68480,0.64300,0.65180,77296
2009.02.15,00:00,0.65170,0.65380,0.63310,0.64460,58530
2009.02.22,00:00,0.64470,0.65530,0.63370,0.63690,70783
2009.03.01,00:00,0.63700,0.65250,0.62840,0.64130,60622
2009.03.08,00:00,0.64120,0.66020,0.63050,0.65340,63928
2009.03.15,00:00,0.65360,0.69420,0.65340,0.69310,60437
2009.03.22,00:00,0.69300,0.70920,0.68650,0.69126,61979
2009.03.29,00:00,0.69120,0.72290,0.67693,0.71690,172159
2009.04.05,00:00,0.71685,0.72757,0.70319,0.72189,136203
2009.04.12,00:00,0.72194,0.73262,0.71378,0.72364,145144
2009.04.19,00:00,0.72372,0.72375,0.69516,0.71699,177128
2009.04.26,00:00,0.71699,0.73829,0.69885,0.73394,188062
2009.05.03,00:00,0.73394,0.77102,0.73119,0.76774,191469
2009.05.10,00:00,0.76777,0.77029,0.74651,0.74929,221602
2009.05.17,00:00,0.74941,0.78666,0.74494,0.78235,209125
2009.05.24,00:00,0.78235,0.80389,0.77019,0.80050,185527
2009.05.31,00:00,0.80054,0.82625,0.78761,0.79345,189131
2009.06.07,00:00,0.79340,0.82369,0.78262,0.80947,159434
2009.06.14,00:00,0.80948,0.81159,0.78487,0.80239,147015
2009.06.21,00:00,0.80245,0.80859,0.77879,0.80585,149120
2009.06.28,00:00,0.80590,0.81544,0.78998,0.79367,118807
2009.07.05,00:00,0.79373,0.80369,0.77219,0.78035,142455
2009.07.12,00:00,0.78038,0.80709,0.76999,0.80352,268021
2009.07.19,00:00,0.80350,0.82219,0.80336,0.81675,260003
2009.07.26,00:00,0.81665,0.83647,0.81244,0.83442,275138
2009.08.02,00:00,0.83449,0.84694,0.83315,0.83608,285495
2009.08.09,00:00,0.83610,0.84768,0.81789,0.83050,273520
2009.08.16,00:00,0.83050,0.83954,0.81549,0.83715,367874
2009.08.23,00:00,0.83718,0.84696,0.82379,0.83967,297434
2009.08.30,00:00,0.83967,0.85344,0.82384,0.85235,301606
2009.09.06,00:00,0.85232,0.86749,0.85089,0.86200,272220
2009.09.13,00:00,0.86202,0.87745,0.85429,0.86669,264772
2009.09.20,00:00,0.86664,0.87884,0.85888,0.86688,288421
2009.09.27,00:00,0.86702,0.88578,0.85674,0.86692,277979
2009.10.04,00:00,0.86700,0.90894,0.86601,0.90565,262105
2009.10.11,00:00,0.90579,0.92691,0.89824,0.91610,266588
2009.10.18,00:00,0.91614,0.93274,0.91118,0.92157,276963
2009.10.25,00:00,0.92162,0.92755,0.89042,0.89493,339899
2009.11.01,00:00,0.89493,0.92195,0.89148,0.92085,363448
2009.11.08,00:00,0.92080,0.93689,0.91941,0.93379,292805
2009.11.15,00:00,0.93374,0.94050,0.90594,0.91174,320931
2009.11.22,00:00,0.91184,0.93209,0.89445,0.91140,290774
2009.11.29,00:00,0.91145,0.93209,0.90939,0.91590,322856
2009.12.06,00:00,0.91611,0.91917,0.90139,0.91011,329262
2009.12.13,00:00,0.91015,0.91737,0.88085,0.88865,290321
2009.12.20,00:00,0.88869,0.89059,0.87329,0.88339,146682
2009.12.27,00:00,0.88334,0.90093,0.88252,0.89930,100035
2010.01.03,00:00,0.89930,0.92861,0.89372,0.92776,271052
2010.01.10,00:00,0.92776,0.93289,0.91694,0.92030,260658
2010.01.17,00:00,0.92035,0.92782,0.89812,0.90190,292544
2010.01.24,00:00,0.90205,0.90919,0.88189,0.88295,357326
2010.01.31,00:00,0.88289,0.89256,0.85769,0.86770,416667
2010.02.07,00:00,0.86784,0.89197,0.86114,0.88705,366716
2010.02.14,00:00,0.88705,0.90349,0.88477,0.89974,318859
2010.02.21,00:00,0.89977,0.90698,0.87996,0.89724,365716
2010.02.28,00:00,0.89719,0.90975,0.89340,0.90960,358314
2010.03.07,00:00,0.90960,0.91931,0.90541,0.91700,293953
2010.03.14,00:00,0.91702,0.92509,0.90939,0.91350,278786
2010.03.21,00:00,0.91350,0.91970,0.90000,0.90345,346241
2010.03.28,00:00,0.90347,0.92156,0.90319,0.91993,244053
2010.04.04,00:00,0.91998,0.93845,0.91640,0.93674,258174
2010.04.11,00:00,0.93666,0.93814,0.92020,0.92144,305546
2010.04.18,00:00,0.92139,0.93374,0.91563,0.92624,324622
2010.04.25,00:00,0.92624,0.93232,0.91344,0.92427,441124
2010.05.02,00:00,0.92437,0.92739,0.87051,0.89503,640930
2010.05.09,00:00,0.89508,0.90772,0.88436,0.88584,626385
2010.05.16,00:00,0.88579,0.88584,0.80701,0.82835,828113
2010.05.23,00:00,0.82835,0.85504,0.80646,0.84321,675821
2010.05.30,00:00,0.84327,0.85219,0.81589,0.81630,587935
2010.06.06,00:00,0.81640,0.85379,0.80809,0.85350,676789
2010.06.13,00:00,0.85349,0.88174,0.85045,0.87927,541835
2010.06.20,00:00,0.87928,0.88581,0.85944,0.87231,606074
2010.06.27,00:00,0.87226,0.87761,0.83147,0.84174,621846
2010.07.04,00:00,0.84174,0.87900,0.83158,0.87639,455104
2010.07.11,00:00,0.87639,0.88700,0.86475,0.86508,565555
2010.07.18,00:00,0.86508,0.89707,0.86318,0.89421,610568
2010.07.25,00:00,0.89415,0.90682,0.89040,0.90509,644073
2010.08.01,00:00,0.90506,0.92211,0.90500,0.91802,486345
2010.08.08,00:00,0.91804,0.92047,0.89131,0.89377,530792
2010.08.15,00:00,0.89377,0.90785,0.88399,0.88789,554233
2010.08.22,00:00,0.88794,0.90275,0.87701,0.90261,519653
2010.08.29,00:00,0.90261,0.91748,0.88595,0.91523,355129
2010.09.05,00:00,0.91523,0.93015,0.90911,0.92898,462558
2010.09.12,00:00,0.92898,0.94674,0.92862,0.93730,489390
2010.09.19,00:00,0.93721,0.96220,0.93605,0.96050,523192
2010.09.26,00:00,0.96054,0.97490,0.95580,0.97136,590465
2010.10.03,00:00,0.97133,0.99166,0.95405,0.98928,736642
2010.10.10,00:00,0.98928,1.00023,0.97657,0.98871,710185
2010.10.17,00:00,0.98862,0.99583,0.96608,0.98328,897474
2010.10.24,00:00,0.98323,0.99730,0.96505,0.98479,829294
2010.10.31,00:00,0.98479,1.01819,0.98122,1.01619,730324
2010.11.07,00:00,1.01616,1.01722,0.98243,0.98870,903336
2010.11.14,00:00,0.98868,0.99187,0.97234,0.98998,818702
2010.11.21,00:00,0.99001,0.99531,0.96113,0.96579,799452
2010.11.28,00:00,0.96581,0.99374,0.95359,0.99171,879286
2010.12.05,00:00,0.99173,0.99643,0.97512,0.98381,736895
2010.12.12,00:00,0.98382,1.00242,0.98298,0.98780,661527
2010.12.19,00:00,0.98779,1.00653,0.98618,1.00000,433342
2010.12.26,00:00,1.00002,1.02563,0.99867,1.02115,357947
2011.01.02,00:00,1.02116,1.02220,0.99000,0.99510,586122
2011.01.09,00:00,0.99515,1.00192,0.98028,0.99070,696326
2011.01.16,00:00,0.99070,1.00763,0.98312,0.98931,637776
2011.01.23,00:00,0.98931,1.00211,0.98617,0.98681,673855
2011.01.30,00:00,0.98682,1.01993,0.98653,1.01235,641302
2011.02.06,00:00,1.01236,1.01882,0.99593,1.00143,605374
2011.02.13,00:00,1.00142,1.01569,0.99429,1.01421,564835
2011.02.20,00:00,1.01422,1.01763,0.99657,1.01399,557531
2011.02.27,00:00,1.01399,1.02013,1.00742,1.01435,498489
2011.03.06,00:00,1.01437,1.01841,0.99675,1.00990,535050
2011.03.13,00:00,1.00988,1.01162,0.97016,0.99734,811505
2011.03.20,00:00,0.99752,1.02931,0.99513,1.02535,468945
2011.03.27,00:00,1.02535,1.04025,1.02035,1.03891,441105
2011.04.03,00:00,1.03892,1.05745,1.02871,1.05744,484312
2011.04.10,00:00,1.05744,1.05797,1.03884,1.05478,567139
2011.04.17,00:00,1.05481,1.07741,1.04421,1.07704,497503
2011.04.24,00:00,1.07705,1.09923,1.06761,1.09628,443191
2011.05.01,00:00,1.09631,1.10108,1.05354,1.07445,766855
2011.05.08,00:00,1.07445,1.08878,1.05192,1.05505,856497
2011.05.15,00:00,1.05505,1.07099,1.05042,1.06353,847460
2011.05.22,00:00,1.06353,1.07223,1.04394,1.06958,903026
2011.05.29,00:00,1.06954,1.07738,1.05865,1.07551,801254
2011.06.05,00:00,1.07551,1.07664,1.05228,1.05356,759103
2011.06.12,00:00,1.05356,1.07145,1.04768,1.05867,856583
2011.06.19,00:00,1.05867,1.06494,1.04540,1.04671,812054
2011.06.26,00:00,1.04671,1.07890,1.03893,1.07752,848780
2011.07.03,00:00,1.07753,1.07870,1.06532,1.07205,715897
2011.07.10,00:00,1.07204,1.07981,1.05245,1.06434,1007662
2011.07.17,00:00,1.06431,1.08737,1.05594,1.08228,776139
2011.07.24,00:00,1.08229,1.10792,1.07942,1.10125,764949
2011.07.31,00:00,1.10127,1.10640,1.03740,1.03896,1109967
2011.08.07,00:00,1.03896,1.04369,0.99257,1.04081,1266962
2011.08.14,00:00,1.04080,1.06006,1.03141,1.03851,693860
2011.08.21,00:00,1.03851,1.05915,1.03729,1.05722,623534
2011.08.28,00:00,1.05722,1.07626,1.05720,1.06005,377063
2011.09.04,00:00,1.06004,1.06603,1.03949,1.04018,636871
2011.09.11,00:00,1.04020,1.04157,1.01768,1.02895,841294
2011.09.18,00:00,1.02896,1.03114,0.96714,0.98234,1016851
2011.09.25,00:00,0.98234,0.99849,0.96210,0.96715,1196517
2011.10.02,00:00,0.96718,0.98783,0.93864,0.97848,1183415
2011.10.09,00:00,0.97848,1.03419,0.97794,1.03140,944938
2011.10.16,00:00,1.03143,1.03704,1.01170,1.03278,1073694
2011.10.23,00:00,1.03280,1.07520,1.03198,1.06676,1044937
2011.10.30,00:00,1.06677,1.06962,1.02017,1.03906,1060100
2011.11.06,00:00,1.03967,1.04090,1.00506,1.03300,960659
2011.11.13,00:00,1.03300,1.03346,0.99633,0.99915,1117965
2011.11.20,00:00,0.99948,0.99959,0.96627,0.98256,1069937
2011.11.27,00:00,0.98282,1.03288,0.98020,1.02379,1044975
2011.12.04,00:00,1.02367,1.03789,1.00471,1.02040,950079
2011.12.11,00:00,1.02043,1.02066,0.98603,0.99569,1150735
2011.12.18,00:00,0.99611,1.02182,0.98822,1.01389,897157
2011.12.25,00:00,1.01627,1.02672,1.00429,1.02126,422983
2012.01.01,00:00,1.02147,1.03853,1.01803,1.01959,624845
2012.01.08,00:00,1.01986,1.03767,1.01441,1.02785,786805
2012.01.15,00:00,1.02785,1.04924,1.02530,1.04656,769703
2012.01.22,00:00,1.04657,1.06866,1.04270,1.06336,808921
2012.01.29,00:00,1.06336,1.07930,1.05253,1.07501,907860
2012.02.05,00:00,1.07503,1.08432,1.06390,1.07081,907801
2012.02.12,00:00,1.07084,1.08148,1.06279,1.07979,910972
2012.02.19,00:00,1.07979,1.07999,1.05962,1.06926,794250
2012.02.26,00:00,1.06926,1.08552,1.06494,1.07190,825985
2012.03.04,00:00,1.07187,1.07386,1.05081,1.05598,858341
2012.03.11,00:00,1.05599,1.06121,1.04221,1.05996,757838
2012.03.18,00:00,1.05996,1.06360,1.03353,1.04850,805046
2012.03.25,00:00,1.04852,1.05566,1.03034,1.04243,796446
2012.04.01,00:00,1.04241,1.04641,1.02423,1.02892,727802
2012.04.08,00:00,1.02902,1.04515,1.02248,1.03382,791096
2012.04.15,00:00,1.03382,1.04175,1.03038,1.03808,809817
2012.04.22,00:00,1.03808,1.04734,1.02460,1.04533,709359
2012.04.29,00:00,1.04534,1.04601,1.01128,1.01196,670054
2012.05.06,00:00,1.01198,1.02190,1.00059,1.00199,921235
2012.05.13,00:00,1.00198,1.00339,0.97940,0.98360,996026
2012.05.20,00:00,0.98360,0.99340,0.96889,0.98127,964542
2012.05.27,00:00,0.98129,0.98965,0.95800,0.96412,1005819
2012.06.03,00:00,0.96413,1.00073,0.96265,0.99830,1065070
2012.06.10,00:00,0.99830,1.01306,0.98495,1.01121,978693
2012.06.17,00:00,1.01121,1.02230,1.00073,1.00375,1051660
2012.06.24,00:00,1.00375,1.02640,0.99679,1.02364,930343
2012.07.01,00:00,1.02365,1.03281,1.01771,1.01946,701705
2012.07.08,00:00,1.01946,1.02802,1.00994,1.02334,702959
2012.07.15,00:00,1.02334,1.04430,1.02012,1.03367,702045
2012.07.22,00:00,1.03366,1.04859,1.01729,1.04614,1028776
2012.07.29,00:00,1.04615,1.05793,1.04348,1.05578,1003441
2012.08.05,00:00,1.05577,1.06120,1.04961,1.05508,787467
2012.08.12,00:00,1.05507,1.05726,1.04099,1.04340,667865
2012.08.19,00:00,1.04340,1.05441,1.03746,1.04014,684460
2012.08.26,00:00,1.04014,1.04153,1.02692,1.02698,610626
2012.09.02,00:00,1.02698,1.03998,1.01632,1.03602,712858
2012.09.09,00:00,1.03602,1.06237,1.03218,1.05342,729075
2012.09.16,00:00,1.05342,1.05463,1.03665,1.04334,777926
2012.09.23,00:00,1.04334,1.04731,1.03275,1.03508,761506
2012.09.30,00:00,1.03508,1.04023,1.01490,1.01696,762577
2012.10.07,00:00,1.01696,1.02926,1.01483,1.02210,707906
2012.10.14,00:00,1.02210,1.04101,1.02011,1.03037,677363
2012.10.21,00:00,1.03037,1.03960,1.02350,1.03504,637985
2012.10.28,00:00,1.03504,1.04183,1.03245,1.03398,460589
2012.11.04,00:00,1.03398,1.04791,1.03333,1.03929,630624
2012.11.11,00:00,1.03928,1.04575,1.02864,1.03587,561497
2012.11.18,00:00,1.03587,1.04700,1.03370,1.04563,482185
2012.11.25,00:00,1.04562,1.04888,1.04013,1.04246,549660
2012.12.02,00:00,1.04246,1.05144,1.03921,1.04810,513928
2012.12.09,00:00,1.04809,1.05845,1.04605,1.05524,414270
2012.12.16,00:00,1.05524,1.05563,1.03926,1.03931,428944
2012.12.23,00:00,1.03931,1.04151,1.03436,1.03896,236769
2012.12.30,00:00,1.03893,1.05264,1.03633,1.04944,333615
2013.01.06,00:00,1.04943,1.05971,1.04665,1.05352,470572
2013.01.13,00:00,1.05352,1.05792,1.04847,1.05022,483132
2013.01.20,00:00,1.05022,1.05775,1.04020,1.04096,456547
2013.01.27,00:00,1.04096,1.04754,1.03602,1.04228,451064
2013.02.03,00:00,1.04228,1.04566,1.02547,1.03182,501859
2013.02.10,00:00,1.03182,1.03740,1.02262,1.02961,438057
2013.02.17,00:00,1.02961,1.03669,1.02201,1.02958,458161
2013.02.24,00:00,1.02960,1.03272,1.01814,1.01947,661793
2013.03.03,00:00,1.01947,1.03004,1.01141,1.02124,503508
2013.03.10,00:00,1.02123,1.04131,1.02100,1.03513,469234
2013.03.17,00:00,1.03512,1.04606,1.03430,1.04472,465415
2013.03.24,00:00,1.04473,1.04959,1.03958,1.04109,380956
2013.03.31,00:00,1.04111,1.04963,1.03474,1.03506,423490
2013.04.07,00:00,1.03507,1.05813,1.03501,1.05086,478703
2013.04.14,00:00,1.05086,1.05229,1.02679,1.02720,761242
2013.04.21,00:00,1.02721,1.03384,1.02200,1.02825,543973
2013.04.28,00:00,1.02823,1.03841,1.02212,1.02964,500588
2013.05.05,00:00,1.02963,1.03059,0.99600,0.99831,613956
2013.05.12,00:00,0.99831,1.00102,0.97103,0.97634,845049
2013.05.19,00:00,0.97630,0.98415,0.95927,0.96330,1029047
2013.05.26,00:00,0.96330,0.96965,0.95272,0.96185,911954
2013.06.02,00:00,0.96185,0.97908,0.93903,0.94198,1173690
2013.06.09,00:00,0.94199,0.96651,0.93246,0.95652,1138793
2013.06.16,00:00,0.95652,0.96403,0.91622,0.92416,1038252
2013.06.23,00:00,0.92416,0.93436,0.91067,0.91403,1049650
2013.06.30,00:00,0.91403,0.92521,0.90348,0.90417,920909
2013.07.07,00:00,0.90417,0.93043,0.89972,0.90852,946596
2013.07.14,00:00,0.90851,0.92911,0.90348,0.92194,838901
2013.07.21,00:00,0.92193,0.93172,0.91275,0.92521,964919
2013.07.28,00:00,0.92521,0.92859,0.88693,0.89030,1002659
2013.08.04,00:00,0.89031,0.92136,0.88468,0.91757,858819
2013.08.11,00:00,0.91757,0.92201,0.90579,0.91957,828276
2013.08.18,00:00,0.91957,0.92324,0.89309,0.90261,986717
2013.08.25,00:00,0.90260,0.90687,0.88912,0.89360,810274
2013.09.01,00:00,0.89359,0.92159,0.89353,0.91895,783752
2013.09.08,00:00,0.91895,0.93885,0.91664,0.93218,741528
2013.09.15,00:00,0.93217,0.95275,0.92839,0.93989,748383
2013.09.22,00:00,0.93989,0.94561,0.92856,0.92972,638913
2013.09.29,00:00,0.92972,0.94576,0.92796,0.94397,698170
2013.10.06,00:00,0.94399,0.94838,0.93871,0.94454,642959
2013.10.13,00:00,0.94455,0.96763,0.94333,0.96595,669247
2013.10.20,00:00,0.96595,0.97569,0.95708,0.95966,595249
2013.10.27,00:00,0.95965,0.96214,0.94207,0.94665,650172
2013.11.03,00:00,0.94666,0.95425,0.93516,0.93692,688647
2013.11.10,00:00,0.93692,0.93895,0.92673,0.93678,597740
2013.11.17,00:00,0.93678,0.94472,0.91423,0.91639,731696
2013.11.24,00:00,0.91639,0.92033,0.90547,0.91196,613414
2013.12.01,00:00,0.91196,0.91674,0.89882,0.91029,807110
2013.12.08,00:00,0.91029,0.91658,0.89084,0.89495,688956
2013.12.15,00:00,0.89495,0.89688,0.88189,0.89203,664280
2013.12.22,00:00,0.89203,0.89571,0.88449,0.88522,283405
2013.12.29,00:00,0.88522,0.90036,0.88323,0.89446,441814
2014.01.05,00:00,0.89540,0.90041,0.88638,0.89953,687975
2014.01.12,00:00,0.89974,0.90853,0.87622,0.87791,586964
2014.01.19,00:00,0.87702,0.88875,0.86591,0.86817,593079
2014.01.26,00:00,0.86846,0.88247,0.86764,0.87499,705905
2014.02.02,00:00,0.87652,0.89972,0.87293,0.89550,659573
2014.02.09,00:00,0.89549,0.90661,0.89058,0.90283,494473
2014.02.16,00:00,0.90627,0.90796,0.89357,0.89701,550754
2014.02.23,00:00,0.89746,0.90482,0.89029,0.89327,547509
2014.03.02,00:00,0.88929,0.91323,0.88874,0.90668,536807
2014.03.09,00:00,0.90354,0.91023,0.89225,0.90307,533902
2014.03.16,00:00,0.90009,0.91375,0.89942,0.90797,485705
2014.03.23,00:00,0.91014,0.92941,0.90458,0.92470,480288
2014.03.30,00:00,0.92349,0.93065,0.92046,0.92896,473947
2014.04.06,00:00,0.92777,0.94603,0.92530,0.93958,563860
2014.04.13,00:00,0.93815,0.94246,0.93201,0.93249,475800
2014.04.20,00:00,0.93306,0.93774,0.92511,0.92689,401969
2014.04.27,00:00,0.92682,0.93157,0.92012,0.92746,506291
2014.05.04,00:00,0.92817,0.93933,0.92513,0.93601,515557
2014.05.11,00:00,0.93549,0.94081,0.93260,0.93582,426921
2014.05.18,00:00,0.93669,0.93723,0.92077,0.92294,439115
2014.05.25,00:00,0.92316,0.93283,0.92095,0.93077,374750
2014.06.01,00:00,0.93056,0.93576,0.92280,0.93340,481042
2014.06.08,00:00,0.93356,0.94364,0.93335,0.94004,424147
2014.06.15,00:00,0.93863,0.94305,0.93207,0.93860,438233
2014.06.22,00:00,0.93682,0.94440,0.93533,0.94211,385462
2014.06.29,00:00,0.94145,0.95040,0.93278,0.93634,455460
2014.07.06,00:00,0.93560,0.94558,0.93406,0.93893,408752
2014.07.13,00:00,0.93746,0.94098,0.93284,0.93904,496316
2014.07.20,00:00,0.93874,0.94729,0.93597,0.93957,442914
2014.07.27,00:00,0.93899,0.94153,0.92744,0.93151,551984
2014.08.03,00:00,0.93063,0.93732,0.92382,0.92757,503188
2014.08.10,00:00,0.92708,0.93333,0.92465,0.93208,392960
2014.08.17,00:00,0.93093,0.93450,0.92346,0.93164,475416
2014.08.24,00:00,0.93030,0.93732,0.92707,0.93363,502589
2014.08.31,00:00,0.93175,0.94007,0.92619,0.93761,566047
2014.09.07,00:00,0.93593,0.93732,0.90294,0.90411,791492
2014.09.14,00:00,0.90025,0.91113,0.89197,0.89277,859286
2014.09.21,00:00,0.89300,0.89486,0.87467,0.87612,862114
2014.09.28,00:00,0.87480,0.88258,0.86414,0.86739,1037573
2014.10.05,00:00,0.86714,0.88977,0.86513,0.86841,1066705
2014.10.12,00:00,0.86901,0.88592,0.86509,0.87503,1210494
2014.10.19,00:00,0.87568,0.88316,0.87178,0.87951,770701
2014.10.26,00:00,0.88015,0.89101,0.87544,0.87977,806620
2014.11.02,00:00,0.87524,0.87608,0.85396,0.86269,1150810
2014.11.09,00:00,0.86435,0.87724,0.85895,0.87470,988678
2014.11.16,00:00,0.87742,0.87948,0.85651,0.86660,986628
2014.11.23,00:00,0.86768,0.86995,0.84788,0.85024,863916
2014.11.30,00:00,0.84678,0.85414,0.83138,0.83261,959854
2014.12.07,00:00,0.83019,0.83749,0.82130,0.82451,1032252
2014.12.14,00:00,0.82464,0.82734,0.81059,0.81441,1073872
2014.12.21,00:00,0.81410,0.81721,0.80869,0.81145,490273
2014.12.28,00:00,0.81221,0.82144,0.80762,0.80900,541376
2015.01.04,00:00,0.80575,0.82074,0.80314,0.82005,1130001
2015.01.11,00:00,0.82095,0.82942,0.80671,0.82268,1283062
2015.01.18,00:00,0.82188,0.82426,0.78799,0.79043,1392651
2015.01.25,00:00,0.78748,0.80241,0.77189,0.77627,1231978
2015.02.01,00:00,0.77495,0.78750,0.76251,0.77913,1168401
2015.02.08,00:00,0.77605,0.78406,0.76430,0.77560,837040
2015.02.15,00:00,0.77721,0.78476,0.77411,0.78414,785148
2015.02.22,00:00,0.78465,0.79119,0.77385,0.78110,752573
2015.03.01,00:00,0.78062,0.78594,0.77053,0.77145,697939
2015.03.08,00:00,0.77059,0.77389,0.75594,0.76323,902368
2015.03.15,00:00,0.76191,0.78463,0.75899,0.77722,1007006
2015.03.22,00:00,0.77806,0.79372,0.77441,0.77510,1019210
2015.03.29,00:00,0.77338,0.77461,0.75321,0.76307,771939
2015.04.05,00:00,0.76349,0.77375,0.75757,0.76800,773146
2015.04.12,00:00,0.76647,0.78417,0.75518,0.77856,1030107
2015.04.19,00:00,0.78223,0.78395,0.76818,0.78199,997857
2015.04.26,00:00,0.78147,0.80747,0.77904,0.78426,1136627
2015.05.03,00:00,0.78314,0.80294,0.77845,0.79321,1093687
2015.05.10,00:00,0.79241,0.81623,0.78753,0.80374,953292
2015.05.17,00:00,0.80351,0.80512,0.78095,0.78298,833985
2015.05.24,00:00,0.78146,0.78387,0.76168,0.76420,878359
2015.05.31,00:00,0.76331,0.78179,0.75973,0.76143,1032399
2015.06.07,00:00,0.76162,0.77918,0.76020,0.77295,984660
2015.06.14,00:00,0.77488,0.78483,0.76414,0.77697,829884
2015.06.21,00:00,0.77629,0.77955,0.76295,0.76530,743183
2015.06.28,00:00,0.76205,0.77375,0.75079,0.75118,967193
2015.07.05,00:00,0.74785,0.75317,0.73712,0.74370,970778
2015.07.12,00:00,0.74145,0.74878,0.73488,0.73782,943609
2015.07.19,00:00,0.73794,0.74484,0.72587,0.72824,1019440
2015.07.26,00:00,0.72689,0.73657,0.72331,0.72997,1060031
2015.08.02,00:00,0.73159,0.74275,0.72590,0.74171,1079587
2015.08.09,00:00,0.74144,0.74384,0.72138,0.73752,1156489
2015.08.16,00:00,0.73699,0.73880,0.72837,0.73105,1021950
2015.08.23,00:00,0.72970,0.73104,0.70304,0.71802,410330
